// Jest Snapshot v1, https://goo.gl/fbAQLP

exports[`Make a snapshot of AddCustomer 1`] = `
<div
  class="add-customer-section"
>
  <h3>
    Add Customer
  </h3>
   
  <div
    class="add-customer-form"
  >
    <form>
      <div>
        <input
          class="is-valid"
          placeholder="Add customer name ..."
          type="text"
        />
         
        <div
          class="valid-feedback"
        >
          Your name is valid
        </div>
         
        <div
          class="invalid-feedback"
        >
          <!---->
        </div>
      </div>
       
      <div>
        <input
          class=""
          placeholder="Add address ..."
          type="text"
        />
         
        <div
          class="valid-feedback"
        >
          Your Address is valid
        </div>
         
        <div
          class="invalid-feedback"
        >
          <span>
            Address is Required!
          </span>
           
          <!---->
           
          <!---->
        </div>
      </div>
       
      <input
        type="file"
      />
       
      <input
        class="submit-button"
        type="submit"
        value="Submit"
      />
    </form>
  </div>
</div>
`;
