// Jest Snapshot v1, https://goo.gl/fbAQLP

exports[`Make a snapshot of Customers 1`] = `
<div
  class="cutomer-section"
>
  <div
    class="upper-search-section shadow"
  >
    <div
      class="input-search-section"
    >
      <i
        class="fas fa-search"
      />
       
      <input
        placeholder="Search Customer ..."
        type="text"
      />
    </div>
     
    <div
      class="create-cutomer-button-section"
    >
      <button>
        Create
      </button>
       
      <i
        class="far fa-bell"
      />
    </div>
  </div>
   
  <h3
    class="header-section"
  >
    3 Customers
  </h3>
   
  <div
    class="customers-list"
  >
    <div
      class="customer shadow p-2 m-2"
    >
      <div
        class="main-customer-details-section"
      >
        <div
          class="avatar"
        >
          <img
            src="https://images.unsplash.com/photo-1457449940276-e8deed18bfff?ixid=MXwxMjA3fDB8MHxzZWFyY2h8NHx8cHJvZmlsZXxlbnwwfHwwfA%3D%3D&ixlib=rb-1.2.1&w=1000&q=80"
          />
        </div>
         
        <div
          class="name-address-viewinvoices"
        >
          <div
            class="address-name-section"
          >
            <h6>
              
            </h6>
             
            <span>
              Address: 
            </span>
          </div>
           
          <div
            class="list-of-invoices"
          >
            <router-link-stub
              to="/customer/undefined/invoices"
            >
              <i
                class="fas fa-file-alt mr-1"
              />
              View Invoices
            </router-link-stub>
          </div>
        </div>
      </div>
       
      <div
        class="update-and-delete-icons-section"
      >
        <i
          class="fas fa-user-edit"
        />
         
        <i
          class="fas fa-trash-alt"
        />
      </div>
    </div>
    <div
      class="customer shadow p-2 m-2"
    >
      <div
        class="main-customer-details-section"
      >
        <div
          class="avatar"
        >
          <img
            src="https://images.unsplash.com/photo-1457449940276-e8deed18bfff?ixid=MXwxMjA3fDB8MHxzZWFyY2h8NHx8cHJvZmlsZXxlbnwwfHwwfA%3D%3D&ixlib=rb-1.2.1&w=1000&q=80"
          />
        </div>
         
        <div
          class="name-address-viewinvoices"
        >
          <div
            class="address-name-section"
          >
            <h6>
              
            </h6>
             
            <span>
              Address: 
            </span>
          </div>
           
          <div
            class="list-of-invoices"
          >
            <router-link-stub
              to="/customer/undefined/invoices"
            >
              <i
                class="fas fa-file-alt mr-1"
              />
              View Invoices
            </router-link-stub>
          </div>
        </div>
      </div>
       
      <div
        class="update-and-delete-icons-section"
      >
        <i
          class="fas fa-user-edit"
        />
         
        <i
          class="fas fa-trash-alt"
        />
      </div>
    </div>
    <div
      class="customer shadow p-2 m-2"
    >
      <div
        class="main-customer-details-section"
      >
        <div
          class="avatar"
        >
          <img
            src="https://images.unsplash.com/photo-1457449940276-e8deed18bfff?ixid=MXwxMjA3fDB8MHxzZWFyY2h8NHx8cHJvZmlsZXxlbnwwfHwwfA%3D%3D&ixlib=rb-1.2.1&w=1000&q=80"
          />
        </div>
         
        <div
          class="name-address-viewinvoices"
        >
          <div
            class="address-name-section"
          >
            <h6>
              
            </h6>
             
            <span>
              Address: 
            </span>
          </div>
           
          <div
            class="list-of-invoices"
          >
            <router-link-stub
              to="/customer/undefined/invoices"
            >
              <i
                class="fas fa-file-alt mr-1"
              />
              View Invoices
            </router-link-stub>
          </div>
        </div>
      </div>
       
      <div
        class="update-and-delete-icons-section"
      >
        <i
          class="fas fa-user-edit"
        />
         
        <i
          class="fas fa-trash-alt"
        />
      </div>
    </div>
  </div>
   
  <transition-stub
    appear="true"
    name="fade"
  >
    <!---->
  </transition-stub>
   
  <transition-stub
    appear="true"
    name="fade"
  >
    <!---->
  </transition-stub>
</div>
`;
